com\binnacle\HelperFunctions$1.class
com\binnacle\HelperFunctions$2$1.class
com\binnacle\HelperFunctions$18.class
com\binnacle\HelperFunctions$13.class
com\binnacle\HelperFunctions$6.class
com\binnacle\OrderItem.class
com\binnacle\HelperFunctions$5.class
com\binnacle\HelperFunctions$15.class
com\binnacle\Customer.class
com\binnacle\HelperFunctions$3.class
com\binnacle\ImportMain.class
com\binnacle\HelperFunctions$17.class
com\binnacle\HelperFunctions$8.class
com\binnacle\HelperFunctions$12.class
com\binnacle\CustomerAddress.class
com\binnacle\HelperFunctions$7.class
com\binnacle\HelperFunctions$19.class
com\binnacle\HelperFunctions$14.class
com\binnacle\ImportMain$1.class
com\binnacle\HelperFunctions$2.class
com\binnacle\HelperFunctions$10.class
com\binnacle\HelperFunctions$20.class
com\binnacle\Product$1.class
com\binnacle\HelperFunctions$16.class
com\binnacle\Product.class
com\binnacle\Order$OrderType.class
com\binnacle\HelperFunctions$11.class
com\binnacle\HelperFunctions.class
com\binnacle\HelperFunctions$9.class
com\binnacle\Order.class
com\binnacle\HelperFunctions$4.class
